{
    "A->R_BC.DR_BC->B.C_total_0r": 0.4516137715445613,
    "A->R_BC.DR_BC->B.C_total_0i": -3.443873166811006,
    "A->R_BC.D_g_ls_0r": 1.0,
    "A->R_BC.D_g_ls_0i": 0.0,
    "A->R_BC.D_g_ls_1r": 3.524353145807241,
    "A->R_BC.D_g_ls_1i": -1.5785358292796043,
    "R_BC->B.C_g_ls_0r": 1.0,
    "R_BC->B.C_g_ls_0i": 0.0,
    "R_BC->B.C_g_ls_1r": 3.657117111335246,
    "R_BC->B.C_g_ls_1i": -0.7740998165995177,
    "R_BC->B.C_g_ls_2r": -7.189904912257068,
    "R_BC->B.C_g_ls_2i": -0.9725007056909462,

    "A->R_BD.CR_BD->B.D_total_0r": 0.37379797096557865,
    "A->R_BD.CR_BD->B.D_total_0i": 2.1304359777039887,
    "A->R_BD.C_g_ls_0r": 1.0,
    "A->R_BD.C_g_ls_0i": 0.0,
    "A->R_BD.C_g_ls_1r": 7.907873436450139,
    "A->R_BD.C_g_ls_1i": 1.100472778045793,
    "A->R_BD.C_g_ls_2r": 4.012710641580947,
    "A->R_BD.C_g_ls_2i": -2.000376113177179,
    "R_BD->B.D_g_ls_0r": 1.0,
    "R_BD->B.D_g_ls_0i": 0.0,
    "R_BD->B.D_g_ls_1r": -3.1444629758429206,
    "R_BD->B.D_g_ls_1i": -0.8168606658739426,

    "A->R_CD.BR_CD->C.D_total_0r": 0.14288893206923325,
    "A->R_CD.BR_CD->C.D_total_0i": -4.643516581555534,
    "A->R_CD.B_g_ls_0r": 1.0,
    "A->R_CD.B_g_ls_0i": 0.0,
    "A->R_CD.B_g_ls_1r": -3.841967271985308,
    "A->R_CD.B_g_ls_1i": -2.5575694295501816,
    "A->R_CD.B_g_ls_2r": 2.3315982507642388,
    "A->R_CD.B_g_ls_2i": -3.2170866088659476,
    "R_CD->C.D_g_ls_0r": 1.0,
    "R_CD->C.D_g_ls_0i": 0.0,
    "R_CD->C.D_g_ls_1r": -2.7951960228603765,
    "R_CD->C.D_g_ls_1i": -7.300347506991695,
}